…
1. ketoacidosis
2. nephropathy
3. neuropathy
4. macular
5. cataracts

Please see the below for the results of all five of my words.

> tidy_glove %>%
+   nearest_neighbors("foot")
# A tibble: 400,000 × 2
   item1    value
   <chr>    <dbl>
 1 foot     1    
 2 feet     0.733
 3 shoulder 0.649
 4 corner   0.640
 5 chest    0.637
 6 leg      0.629
 7 walking  0.627
 8 knee     0.626
 9 front    0.625
10 inside   0.623
# ℹ 399,990 more rows
# ℹ Use `print(n = ...)` to see more rows
> 
> tidy_glove %>%
+   nearest_neighbors("ulcer")
# A tibble: 400,000 × 2
   item1      value
   <chr>      <dbl>
 1 ulcer      1    
 2 ulcers     0.732
 3 heartburn  0.670
 4 peptic     0.669
 5 stomach    0.659
 6 gastric    0.646
 7 arthritis  0.642
 8 bleeding   0.625
 9 clot       0.619
10 medication 0.617
# ℹ 399,990 more rows
# ℹ Use `print(n = ...)` to see more rows
> 
> tidy_glove %>%
+   nearest_neighbors("diabetes")
# A tibble: 400,000 × 2
   item1          value
   <chr>          <dbl>
 1 diabetes       1    
 2 hypertension   0.848
 3 obesity        0.799
 4 arthritis      0.780
 5 cancer         0.779
 6 alzheimer      0.774
 7 asthma         0.765
 8 cardiovascular 0.756
 9 disease        0.733
10 epilepsy       0.730
# ℹ 399,990 more rows
# ℹ Use `print(n = ...)` to see more rows
> 
> tidy_glove %>%
+   nearest_neighbors("debridement")
# A tibble: 400,000 × 2
   item1           value
   <chr>           <dbl>
 1 debridement     1    
 2 suturing        0.708
 3 cholecystectomy 0.633
 4 stoping         0.633
 5 phlebotomy      0.630
 6 resection       0.620
 7 scarification   0.610
 8 sympathectomy   0.597
 9 enucleation     0.596
10 craniotomy      0.590
# ℹ 399,990 more rows
# ℹ Use `print(n = ...)` to see more rows
> 
> tidy_glove %>%
+   nearest_neighbors("retinopathy")
# A tibble: 400,000 × 2
   item1         value
   <chr>         <dbl>
 1 retinopathy   1    
 2 ketoacidosis  0.600
 3 nephropathy   0.598
 4 neuropathy    0.594
 5 macular       0.570
 6 cataracts     0.541
 7 prematurity   0.540
 8 gastroparesis 0.529
 9 luxation      0.523
10 glaucoma      0.510
# ℹ 399,990 more rows
# ℹ Use `print(n = ...)` to see more rows
